Habari Tanzania - Data Preparation
…
touristdata_no_na <- touristdata_min_na %>% drop_na()
touristdata_no_na

# A tibble: 4,762 × 26
   ID    country age_g…¹ trave…² total…³ total…⁴ total…⁵ purpose main_…⁶ info_…⁷
   <chr> <chr>   <chr>   <chr>     <dbl>   <dbl>   <dbl> <chr>   <chr>   <chr>  
 1 tour… SWIZER… 45-64   Friend…       1       1       2 Leisur… Wildli… Friend…
 2 tour… UNITED… 25-44   Alone         1       0       1 Leisur… Cultur… others 
 3 tour… UNITED… 25-44   Alone         0       1       1 Visiti… Cultur… Friend…
 4 tour… UNITED… 25-44   Spouse        1       1       2 Leisur… Wildli… Travel…
 5 tour… CHINA   1-24    Alone         1       0       1 Leisur… Wildli… Travel…
 6 tour… UNITED… 25-44   Alone         0       1       1 Leisur… Wildli… Travel…
 7 tour… SOUTH … 45-64   Alone         0       1       1 Busine… Mounta… Friend…
 8 tour… UNITED… 45-64   Friend…       1       1       2 Leisur… Wildli… Travel…
 9 tour… NIGERIA 25-44   Alone         0       1       1 Leisur… Cultur… Travel…
10 tour… INDIA   25-44   Alone         1       0       1 Busine… Wildli… Travel…
# … with 4,752 more rows, 16 more variables: tour_arrangement <chr>,
#   package_transport_int <fct>, package_accomodation <fct>,
#   package_food <fct>, package_transport_tz <fct>, package_sightseeing <fct>,
#   package_guided_tour <fct>, package_insurance <fct>, night_mainland <dbl>,
#   night_zanzibar <dbl>, total_night_spent <dbl>,
#   prop_night_spent_mainland <dbl>, payment_mode <chr>, first_trip_tz <fct>,
#   most_impressing <chr>, total_cost <dbl>, and abbreviated variable names …
…
touristdata_clean

# A tibble: 4,762 × 28
   ID       country region code  age_g…¹ trave…² total…³ total…⁴ total…⁵ purpose
   <chr>    <chr>   <chr>  <chr> <chr>   <chr>     <dbl>   <dbl>   <dbl> <chr>  
 1 tour_0   SWITZE… Europe CHE   45-64   Friend…       1       1       2 Leisur…
 2 tour_10  UNITED… Europe GBR   25-44   Alone         1       0       1 Leisur…
 3 tour_10… UNITED… Europe GBR   25-44   Alone         0       1       1 Visiti…
 4 tour_10… UNITED… Europe GBR   25-44   Spouse        1       1       2 Leisur…
 5 tour_10… CHINA   Asia   CHN   1-24    Alone         1       0       1 Leisur…
 6 tour_10… UNITED… Europe GBR   25-44   Alone         0       1       1 Leisur…
 7 tour_10… SOUTH … Africa ZAF   45-64   Alone         0       1       1 Busine…
 8 tour_10… UNITED… Ameri… USA   45-64   Friend…       1       1       2 Leisur…
 9 tour_101 NIGERIA Africa NGA   25-44   Alone         0       1       1 Leisur…
10 tour_10… INDIA   Asia   IND   25-44   Alone         1       0       1 Busine…
# … with 4,752 more rows, 18 more variables: main_activity <chr>,
#   info_source <chr>, tour_arrangement <chr>, package_transport_int <fct>,
#   package_accomodation <fct>, package_food <fct>, package_transport_tz <fct>,
#   package_sightseeing <fct>, package_guided_tour <fct>,
#   package_insurance <fct>, night_mainland <dbl>, night_zanzibar <dbl>,
#   total_night_spent <dbl>, prop_night_spent_mainland <dbl>,
#   payment_mode <chr>, first_trip_tz <fct>, most_impressing <chr>, …
…
